Predictive - prototype test
…
tree_wf <- workflow() %>%
  add_model(tree_model) %>%
  add_recipe(rcpTransform2)

tree_result <- tree_wf %>%
  tune_grid(resamples = listing_kfolds,
            grid = tree_grid,
            metrics = metric_set(mae, mape, rmse, rsq),
            control = control_resamples(save_pred = TRUE))

The subsequent steps are similar to that of GLM model. For the tree plotting, there is not many options for the package that support interactivity. Here, we are comparing fancyRpartPlot function from rattle package and visTree from visNetwork package. Clearly with deep tree, interactivity provided by visTree is superior to that of static fancyRpartPlot.

collect_metrics(tree_result)

## # A tibble: 108 x 9
##    cost_complexity tree_depth min_n .metric .estimator    mean     n std_err
##              <dbl>      <int> <int> <chr>   <chr>        <dbl> <int>   <dbl>
##  1    0.0000000001          3     2 mae     standard    58.1       3  1.68  
##  2    0.0000000001          3     2 mape    standard    61.3       3  0.892 
##  3    0.0000000001          3     2 rmse    standard   100.        3  2.93  
##  4    0.0000000001          3     2 rsq     standard     0.343     3  0.0273
##  5    0.00000316            3     2 mae     standard    58.1       3  1.68  
##  6    0.00000316            3     2 mape    standard    61.3       3  0.892 
##  7    0.00000316            3     2 rmse    standard   100.        3  2.93  
##  8    0.00000316            3     2 rsq     standard     0.343     3  0.0273
##  9    0.1                   3     2 mae     standard    69.3       3  1.98  
## 10    0.1                   3     2 mape    standard    81.0       3  0.0520
## # ... with 98 more rows, and 1 more variable: .config <chr>
…
## ! Fold3: preprocessor 1/1, model 2/9: 15 columns were requested but there were 11...

## ! Fold3: preprocessor 1/1, model 3/9: 20 columns were requested but there were 11...

## ! Fold3: preprocessor 1/1, model 5/9: 15 columns were requested but there were 11...

## ! Fold3: preprocessor 1/1, model 6/9: 20 columns were requested but there were 11...

## ! Fold3: preprocessor 1/1, model 8/9: 15 columns were requested but there were 11...

## ! Fold3: preprocessor 1/1, model 9/9: 20 columns were requested but there were 11...

collect_metrics(randomf_result)

## # A tibble: 36 x 8
##     mtry min_n .metric .estimator   mean     n std_err .config             
##    <int> <int> <chr>   <chr>       <dbl> <int>   <dbl> <chr>               
##  1    10     2 mae     standard   43.3       3  0.856  Preprocessor1_Model1
##  2    10     2 mape    standard   40.9       3  1.11   Preprocessor1_Model1
##  3    10     2 rmse    standard   85.7       3  2.46   Preprocessor1_Model1
##  4    10     2 rsq     standard    0.515     3  0.0165 Preprocessor1_Model1
##  5    15     2 mae     standard   43.5       3  0.886  Preprocessor1_Model2
##  6    15     2 mape    standard   40.8       3  1.19   Preprocessor1_Model2
##  7    15     2 rmse    standard   85.8       3  2.64   Preprocessor1_Model2
##  8    15     2 rsq     standard    0.514     3  0.0171 Preprocessor1_Model2
##  9    20     2 mae     standard   43.4       3  0.922  Preprocessor1_Model3
## 10    20     2 mape    standard   40.7       3  1.05   Preprocessor1_Model3
## # ... with 26 more rows
…
